{
	"searchConfiguration": {
		"items": [{
			"findCSV": "find {} -type f -name  '*.csv'  |wc -l",
			"findXml": "find {} -type f -name  '*.xml'  |wc -l",
			"systemStorage": "df -h",
			"ericssonPmParserHourly": "grep -rnw {} -e 'Ericsson PM parser task for OSS=EricssonOss3G4G, TimeFrame=HOUR finished' |wc -l",
			"nokiaPmParserHourly": "grep -rnw {} -e 'Nokia PM parser task for OSS=NokiaOss1, TimeFrame=HOUR finished and took' |wc -l",
			"ericssonPmParserDaily": "grep -rnw {} -e 'Ericsson PM parser task for OSS=EricssonOss3G4G, TimeFrame=DAY finished' |wc -l",
			"nokiaPmParserDaily": "grep -rnw {} -e 'Nokia PM parser task for OSS=NokiaOss1, TimeFrame=DAY finished and took' |wc -l",
            "cmParseDaily": "grep -rn {} -e 'CM parsing Finished: \\[' |wc -l",
			"cdrProcessManagerDaily":"grep -rnw {} -e 'save_daily_impact_counters ended' |wc -l",
			"ossJavaThreadException":"grep -rnw /home/Sonata/logs/sonataLog-$(date -d 'yesterday' +'%Y-%m-%d')-*.log -e 'java.lang.RuntimeException: waitForAllTaskFinish is called, threads are waiting for tasks to complete more than' |wc -l"
		}]
	}
}